…
generator_rfm <- function(data){
  analy_day <- max(cust_df$date) + 1

  cust_df %>% 
  dplyr::group_by(customer_id) %>% 
  dplyr::summarise(recency_days = as.numeric(analy_day - max(date)),
                   frequency = n(), 
                   monetary = sum(amount)) %>%  ungroup()
}

cust_df %>% 
  generator_rfm()

## # A tibble: 6,889 × 4
##    customer_id recency_days frequency monetary
##    <chr>              <dbl>     <int>    <dbl>
##  1 CS1112                62        15     1012
##  2 CS1113                36        20     1490
##  3 CS1114                33        19     1432
##  4 CS1115                12        22     1659
##  5 CS1116               204        13      857
##  6 CS1117               258        17     1185
##  7 CS1118                 3        15     1011
##  8 CS1119                12        15     1158
##  9 CS1120                11        24     1677
## 10 CS1121                42        26     1524
## # … with 6,879 more rows
…
